R Machine Learning Codebook (Part 1) - JungYul Yang Blog
…
library(readr)
#information for data
usedcar2 <- read_csv("data/usedcar2.csv")

## Parsed with column specification:
## cols(
##   Price = col_double(),
##   Odometer = col_double(),
##   Color = col_character()
## )

usedcar2

## # A tibble: 100 x 3
##    Price Odometer Color
##    <dbl>    <dbl> <chr>
##  1 14636    37388 white
##  2 14122    44758 white
##  3 14470    45854 white
##  4 15072    40149 white
##  5 14802    40237 white
##  6 14660    43533 white
##  7 15612    32744 white
##  8 14632    41350 white
##  9 15008    35781 white
## 10 14666    48613 white
## # … with 90 more rows

Encoding categorical variable

usedcar2$Ind1 <- as.numeric(usedcar2$Color == 'white')
usedcar2$Ind2 <- as.numeric(usedcar2$Color == 'silver')
usedcar2

## # A tibble: 100 x 5
##    Price Odometer Color  Ind1  Ind2
##    <dbl>    <dbl> <chr> <dbl> <dbl>
##  1 14636    37388 white     1     0
##  2 14122    44758 white     1     0
##  3 14470    45854 white     1     0
##  4 15072    40149 white     1     0
##  5 14802    40237 white     1     0
##  6 14660    43533 white     1     0
##  7 15612    32744 white     1     0
##  8 14632    41350 white     1     0
##  9 15008    35781 white     1     0
## 10 14666    48613 white     1     0
## # … with 90 more rows
…
#remove all na
complete = complete.cases(directmail)
directmail <- directmail[complete,]
directmail

## # A tibble: 9,727 x 9
##    RESPOND   AGE BUY18 CLIMATE  FICO INCOME MARRIED OWNHOME GENDER
##      <dbl> <dbl> <dbl>   <dbl> <dbl>  <dbl>   <dbl>   <dbl> <chr> 
##  1       0    71     1      10   719     67       1       0 M     
##  2       0    53     0      10   751     72       1       0 M     
##  3       0    53     1      10   725     70       1       0 F     
##  4       0    45     1      10   684     56       0       0 F     
##  5       0    32     0      10   651     66       0       0 F     
##  6       0    35     0      10   691     48       0       1 F     
##  7       0    43     0      10   694     49       0       1 F     
##  8       0    39     0      10   659     64       0       0 M     
##  9       0    66     0      10   692     65       0       0 M     
## 10       0    52     2      10   705     58       1       1 M     
## # … with 9,717 more rows
…
library(readr)
titanic <- read_csv("data/titanic.csv")

## Parsed with column specification:
## cols(
##   Class = col_character(),
##   Age = col_character(),
##   Sex = col_character(),
##   Survived = col_character()
## )

titanic

## # A tibble: 2,201 x 4
##    Class Age   Sex   Survived
##    <chr> <chr> <chr> <chr>   
##  1 First Adult Male  Yes     
##  2 First Adult Male  Yes     
##  3 First Adult Male  Yes     
##  4 First Adult Male  Yes     
##  5 First Adult Male  Yes     
##  6 First Adult Male  Yes     
##  7 First Adult Male  Yes     
##  8 First Adult Male  Yes     
##  9 First Adult Male  Yes     
## 10 First Adult Male  Yes     
## # … with 2,191 more rows
…
