…
#remove all na
complete = complete.cases(directmail)
directmail <- directmail[complete,]
directmail

## # A tibble: 9,727 x 9
##    RESPOND   AGE BUY18 CLIMATE  FICO INCOME MARRIED OWNHOME GENDER
##      <dbl> <dbl> <dbl>   <dbl> <dbl>  <dbl>   <dbl>   <dbl> <chr> 
##  1       0    71     1      10   719     67       1       0 M     
##  2       0    53     0      10   751     72       1       0 M     
##  3       0    53     1      10   725     70       1       0 F     
##  4       0    45     1      10   684     56       0       0 F     
##  5       0    32     0      10   651     66       0       0 F     
##  6       0    35     0      10   691     48       0       1 F     
##  7       0    43     0      10   694     49       0       1 F     
##  8       0    39     0      10   659     64       0       0 M     
##  9       0    66     0      10   692     65       0       0 M     
## 10       0    52     2      10   705     58       1       1 M     
## # … with 9,717 more rows
…
